module golang-darknet

go 1.19

require (
	github.com/LdDl/go-darknet v1.3.7
	github.com/disintegration/imaging v1.6.2
	github.com/gofiber/fiber/v2 v2.48.0
	github.com/joho/godotenv v1.5.1
	go.mongodb.org/mongo-driver v1.12.0
)

require (
	github.com/andybalholm/brotli v1.0.5 // indirect
	github.com/golang/snappy v0.0.1 // indirect
	github.com/google/uuid v1.3.0 // indirect
	github.com/klauspost/compress v1.16.3 // indirect
	github.com/mattn/go-colorable v0.1.13 // indirect
	github.com/mattn/go-isatty v0.0.19 // indirect
	github.com/mattn/go-runewidth v0.0.14 // indirect
	github.com/montanaflynn/stats v0.0.0-20171201202039-1bf9dbcd8cbe // indirect
	github.com/rivo/uniseg v0.2.0 // indirect
	github.com/valyala/bytebufferpool v1.0.0 // indirect
	github.com/valyala/fasthttp v1.48.0 // indirect
	github.com/valyala/tcplisten v1.0.0 // indirect
	github.com/xdg-go/pbkdf2 v1.0.0 // indirect
	github.com/xdg-go/scram v1.1.2 // indirect
	github.com/xdg-go/stringprep v1.0.4 // indirect
	github.com/youmark/pkcs8 v0.0.0-20181117223130-1be2e3e5546d // indirect
	golang.org/x/crypto v0.7.0 // indirect
	golang.org/x/image v0.0.0-20211028202545-6944b10bf410 // indirect
	golang.org/x/sync v0.0.0-20220722155255-886fb9371eb4 // indirect
	golang.org/x/sys v0.10.0 // indirect
	golang.org/x/text v0.8.0 // indirect
)
